…
R

select(df, color, cut)

#or

df %>%
  select(color, cut)

View Output

select(df, color, cut)

## # A tibble: 53,940 × 2
##    color cut      
##    <ord> <ord>    
##  1 E     Ideal    
##  2 E     Premium  
##  3 E     Good     
##  4 I     Premium  
##  5 J     Good     
##  6 J     Very Good
##  7 I     Very Good
##  8 H     Very Good
##  9 E     Fair     
## 10 H     Very Good
## # … with 53,930 more rows
…
If we want to select a range of columns

R

select(df, x:z)

#or

df %>% select(x:z)

View Output

select(df, x:z)

## # A tibble: 53,940 × 3
##        x     y     z
##    <dbl> <dbl> <dbl>
##  1  3.95  3.98  2.43
##  2  3.89  3.84  2.31
##  3  4.05  4.07  2.31
##  4  4.2   4.23  2.63
##  5  4.34  4.35  2.75
##  6  3.94  3.96  2.48
##  7  3.95  3.98  2.47
##  8  4.07  4.11  2.53
##  9  3.87  3.78  2.49
## 10  4     4.05  2.39
## # … with 53,930 more rows
…
If we want to pipe it

R

df %>% 
  select(color, cut)

View Output

df %>% 
  select(color, cut)

## # A tibble: 53,940 × 2
##    color cut      
##    <ord> <ord>    
##  1 E     Ideal    
##  2 E     Premium  
##  3 E     Good     
##  4 I     Premium  
##  5 J     Good     
##  6 J     Very Good
##  7 I     Very Good
##  8 H     Very Good
##  9 E     Fair     
## 10 H     Very Good
## # … with 53,930 more rows
…
R

select(df, -(x:z))

#or

df %>%
  select(-(x:z))

View Output

select(df, -(x:z))

## # A tibble: 53,940 × 7
##    carat cut       color clarity depth table price
##    <dbl> <ord>     <ord> <ord>   <dbl> <dbl> <int>
##  1  0.23 Ideal     E     SI2      61.5    55   326
##  2  0.21 Premium   E     SI1      59.8    61   326
##  3  0.23 Good      E     VS1      56.9    65   327
##  4  0.29 Premium   I     VS2      62.4    58   334
##  5  0.31 Good      J     SI2      63.3    58   335
##  6  0.24 Very Good J     VVS2     62.8    57   336
##  7  0.24 Very Good I     VVS1     62.3    57   336
##  8  0.26 Very Good H     SI1      61.9    55   337
##  9  0.22 Fair      E     VS2      65.1    61   337
## 10  0.23 Very Good H     VS1      59.4    61   338
## # … with 53,930 more rows
…
filter()

filtering on one condition

R

filter(df, color == 'E')

View Output

filter(df, color == 'E')

## # A tibble: 9,797 × 10
##    carat cut       color clarity depth table price     x     y     z
##    <dbl> <ord>     <ord> <ord>   <dbl> <dbl> <int> <dbl> <dbl> <dbl>
##  1  0.23 Ideal     E     SI2      61.5    55   326  3.95  3.98  2.43
##  2  0.21 Premium   E     SI1      59.8    61   326  3.89  3.84  2.31
##  3  0.23 Good      E     VS1      56.9    65   327  4.05  4.07  2.31
##  4  0.22 Fair      E     VS2      65.1    61   337  3.87  3.78  2.49
##  5  0.2  Premium   E     SI2      60.2    62   345  3.79  3.75  2.27
##  6  0.32 Premium   E     I1       60.9    58   345  4.38  4.42  2.68
##  7  0.23 Very Good E     VS2      63.8    55   352  3.85  3.92  2.48
##  8  0.23 Very Good E     VS1      60.7    59   402  3.97  4.01  2.42
##  9  0.23 Very Good E     VS1      59.5    58   402  4.01  4.06  2.4 
## 10  0.23 Good      E     VS1      64.1    59   402  3.83  3.85  2.46
## # … with 9,787 more rows
…
If we want multiple conditions

R

filter(df, color == 'E', cut == 'Good')

#or

filter(df, color == 'E' & cut == 'Good')

View Output

filter(df, color == 'E', cut == 'Good')

## # A tibble: 933 × 10
##    carat cut   color clarity depth table price     x     y     z
##    <dbl> <ord> <ord> <ord>   <dbl> <dbl> <int> <dbl> <dbl> <dbl>
##  1  0.23 Good  E     VS1      56.9    65   327  4.05  4.07  2.31
##  2  0.23 Good  E     VS1      64.1    59   402  3.83  3.85  2.46
##  3  0.26 Good  E     VVS1     57.9    60   554  4.22  4.25  2.45
##  4  0.7  Good  E     VS2      57.5    58  2759  5.85  5.9   3.38
##  5  0.71 Good  E     VS2      59.2    61  2772  5.8   5.88  3.46
##  6  0.7  Good  E     VS2      64.1    59  2777  5.64  5.59  3.6 
##  7  0.7  Good  E     VS1      57.2    62  2782  5.81  5.77  3.31
##  8  0.76 Good  E     SI1      63.7    54  2789  5.76  5.85  3.7 
##  9  0.7  Good  E     VS2      64.1    55  2793  5.6   5.66  3.61
## 10  0.73 Good  E     SI1      63.2    58  2796  5.7   5.76  3.62
## # … with 923 more rows
…
If we want multiple conditions in one column

R

df %>% 
    filter(color %in% c('E', 'J'))

View Output

df %>% 
    filter(color %in% c('E', 'J'))

## # A tibble: 12,605 × 10
##    carat cut       color clarity depth table price     x     y     z
##    <dbl> <ord>     <ord> <ord>   <dbl> <dbl> <int> <dbl> <dbl> <dbl>
##  1  0.23 Ideal     E     SI2      61.5    55   326  3.95  3.98  2.43
##  2  0.21 Premium   E     SI1      59.8    61   326  3.89  3.84  2.31
##  3  0.23 Good      E     VS1      56.9    65   327  4.05  4.07  2.31
##  4  0.31 Good      J     SI2      63.3    58   335  4.34  4.35  2.75
##  5  0.24 Very Good J     VVS2     62.8    57   336  3.94  3.96  2.48
##  6  0.22 Fair      E     VS2      65.1    61   337  3.87  3.78  2.49
##  7  0.3  Good      J     SI1      64      55   339  4.25  4.28  2.73
##  8  0.23 Ideal     J     VS1      62.8    56   340  3.93  3.9   2.46
##  9  0.31 Ideal     J     SI2      62.2    54   344  4.35  4.37  2.71
## 10  0.2  Premium   E     SI2      60.2    62   345  3.79  3.75  2.27
## # … with 12,595 more rows
…
