…
everything()

all_of()

any_of()

where()

contains() example.

cereal1 %>%
  select(contains("_rating")) 

## # A tibble: 75 x 2
## # Rowwise: 
##    kids_rating adult_rating
##    <chr>       <chr>       
##  1 B           B           
##  2 <NA>        B           
##  3 A           B           
##  4 <NA>        C           
##  5 <NA>        C           
##  6 C           B           
##  7 A           C           
##  8 B           C           
##  9 B           <NA>        
## 10 C           B           
## # … with 65 more rows
…
