…
Reformatting All Column Names

midwest %>%
  select_all(toupper) #could also use tolower()

## # A tibble: 437 x 28
##      PID COUNTY  STATE  AREA POPTOTAL POPDENSITY POPWHITE POPBLACK POPAMERINDIAN
##    <int> <chr>   <chr> <dbl>    <int>      <dbl>    <int>    <int>         <int>
##  1   561 ADAMS   IL    0.052    66090      1271.    63917     1702            98
##  2   562 ALEXAN… IL    0.014    10626       759      7054     3496            19
##  3   563 BOND    IL    0.022    14991       681.    14477      429            35
##  4   564 BOONE   IL    0.017    30806      1812.    29344      127            46
##  5   565 BROWN   IL    0.018     5836       324.     5264      547            14
##  6   566 BUREAU  IL    0.05     35688       714.    35157       50            65
##  7   567 CALHOUN IL    0.017     5322       313.     5298        1             8
##  8   568 CARROLL IL    0.027    16805       622.    16519      111            30
##  9   569 CASS    IL    0.024    13437       560.    13384       16             8
## 10   570 CHAMPA… IL    0.058   173025      2983.   146506    16559           331
## # … with 427 more rows, and 19 more variables: POPASIAN <int>, POPOTHER <int>,
## #   PERCWHITE <dbl>, PERCBLACK <dbl>, PERCAMERINDAN <dbl>, PERCASIAN <dbl>,
## #   PERCOTHER <dbl>, POPADULTS <int>, PERCHSD <dbl>, PERCOLLEGE <dbl>,
## #   PERCPROF <dbl>, POPPOVERTYKNOWN <int>, PERCPOVERTYKNOWN <dbl>,
## #   PERCBELOWPOVERTY <dbl>, PERCCHILDBELOWPOVERT <dbl>, PERCADULTPOVERTY <dbl>,
## #   PERCELDERLYPOVERTY <dbl>, INMETRO <int>, CATEGORY <chr>

Cleaning Column Names

#making an unclean database:
midwest2 <- midwest %>%
  select(poptotal, popother, county, percbelowpoverty, category)

colnames(midwest2) <- c("pop total", "pop other", "county", "perc below poverty", "category")

midwest2 %>%
  select_all(~str_replace(., " ", "_"))

## # A tibble: 437 x 5
##    pop_total pop_other county    `perc_below poverty` category
##        <int>     <int> <chr>                    <dbl> <chr>   
##  1     66090       124 ADAMS                    13.2  AAR     
##  2     10626         9 ALEXANDER                32.2  LHR     
##  3     14991        34 BOND                     12.1  AAR     
##  4     30806      1139 BOONE                     7.21 ALU     
##  5      5836         6 BROWN                    13.5  AAR     
##  6     35688       221 BUREAU                   10.4  AAR     
##  7      5322         0 CALHOUN                  15.1  LAR     
##  8     16805        84 CARROLL                  11.7  AAR     
##  9     13437         6 CASS                     13.9  AAR     
## 10    173025      1596 CHAMPAIGN                15.6  HAU     
## # … with 427 more rows

Filtering

You can use near() with the tolerance argument to find values close to a certain number.

midwest %>%
  select(county, poptotal) %>%
  filter(near(
    poptotal, 96000, tol = 15000
    ))

## # A tibble: 26 x 2
##    county    poptotal
##    <chr>        <int>
##  1 KANKAKEE     96255
##  2 LA SALLE    106913
##  3 VERMILION    88257
##  4 CLARK        87777
##  5 HAMILTON    108936
##  6 JOHNSON      88109
##  7 LA PORTE    107066
##  8 MONROE      108978
##  9 VIGO        106107
## 10 ALLEGAN      90509
## # … with 16 more rows
…
To return all rows where only one condition is met you can use xor() from base.

midwest %>%
  filter(xor(popother < 80, percbelowpoverty > 15))

## # A tibble: 189 x 28
##      PID county  state  area poptotal popdensity popwhite popblack popamerindian
##    <int> <chr>   <chr> <dbl>    <int>      <dbl>    <int>    <int>         <int>
##  1   563 BOND    IL    0.022    14991       681.    14477      429            35
##  2   565 BROWN   IL    0.018     5836       324.     5264      547            14
##  3   569 CASS    IL    0.024    13437       560.    13384       16             8
##  4   570 CHAMPA… IL    0.058   173025      2983.   146506    16559           331
##  5   571 CHRIST… IL    0.042    34418       819.    34176       82            51
##  6   572 CLARK   IL    0.03     15921       531.    15842       10            26
##  7   575 COLES   IL    0.03     51644      1721.    50177      925            92
##  8   577 CRAWFO… IL    0.026    19464       749.    19300       63            34
##  9   578 CUMBER… IL    0.02     10670       534.    10627        5             6
## 10   580 DE WITT IL    0.023    16516       718.    16387       25            37
## # … with 179 more rows, and 19 more variables: popasian <int>, popother <int>,
## #   percwhite <dbl>, percblack <dbl>, percamerindan <dbl>, percasian <dbl>,
## #   percother <dbl>, popadults <int>, perchsd <dbl>, percollege <dbl>,
## #   percprof <dbl>, poppovertyknown <int>, percpovertyknown <dbl>,
## #   percbelowpoverty <dbl>, percchildbelowpovert <dbl>, percadultpoverty <dbl>,
## #   percelderlypoverty <dbl>, inmetro <int>, category <chr>

Return all rows where popother is less than \(80\), but percbelowpoverty does not exceed \(15%\).

midwest %>%
  filter(popother < 80, !percbelowpoverty > 15)

## # A tibble: 153 x 28
##      PID county  state  area poptotal popdensity popwhite popblack popamerindian
##    <int> <chr>   <chr> <dbl>    <int>      <dbl>    <int>    <int>         <int>
##  1   563 BOND    IL    0.022    14991       681.    14477      429            35
##  2   565 BROWN   IL    0.018     5836       324.     5264      547            14
##  3   569 CASS    IL    0.024    13437       560.    13384       16             8
##  4   571 CHRIST… IL    0.042    34418       819.    34176       82            51
##  5   572 CLARK   IL    0.03     15921       531.    15842       10            26
##  6   577 CRAWFO… IL    0.026    19464       749.    19300       63            34
##  7   578 CUMBER… IL    0.02     10670       534.    10627        5             6
##  8   580 DE WITT IL    0.023    16516       718.    16387       25            37
##  9   584 EDWARDS IL    0.014     7440       531.     7401        6             8
## 10   585 EFFING… IL    0.028    31704      1132.    31523       12            45
## # … with 143 more rows, and 19 more variables: popasian <int>, popother <int>,
## #   percwhite <dbl>, percblack <dbl>, percamerindan <dbl>, percasian <dbl>,
## #   percother <dbl>, popadults <int>, perchsd <dbl>, percollege <dbl>,
## #   percprof <dbl>, poppovertyknown <int>, percpovertyknown <dbl>,
## #   percbelowpoverty <dbl>, percchildbelowpovert <dbl>, percadultpoverty <dbl>,
## #   percelderlypoverty <dbl>, inmetro <int>, category <chr>
…
